{
   "name": "airboat",
   "title": "Airboat (Lunovox Version)",
   "created":"2018-06-10 01:17",
   "type": "MOD",
   "version": "1.6.0",
   "dev_state":"BETA",
   "min_minetest_version": "5.7",
   "max_minetest_version": null,
   "authors": [ 
		{ 
		   "name": "Lunovox Heavenfinder", 
		   "email": "lunovox@disroot.org", 
		   "social web": "http:qoto.org/@lunovox",
		   "webchat": "https://cloud.disroot.org/call/9aa2t7ib",
		   "xmpp": "https://conversations.im/i/lunovox@disroot.org?omemo-sid-633434523=97fce936651d6c3a28ca303ad5955ea2f1ab57fd5cd0769f04aebef6dd4cba79",
		   "homepage": "https://libreplanet.org/wiki/User:Lunovox", 
		   "more contacts": "https://libreplanet.org/wiki/User:Lunovox", 
		}, 
	], 
   "tags": [
      "Multiplayer-focused",
      "Vehicle",
      "Flying",
      "Beta", 
   ],
   "keywords": [ 
      "multiplayer",
      "lunovox", 
      "vehicle",
      "flying",
      "airboat", 
   ], 
   "languages": [
      "en",
      "pt",
      "pt_BR",
   ],
   "supported_games": [
      "minetest_game", 
   ],
   "dependencies": 
	{ 
	   //default,doors,keys,dye,flowers,wool
		"default": "https://content.minetest.net/packages/Minetest/minetest_game/", 
		"doors": "https://content.minetest.net/packages/Minetest/minetest_game/", 
		"keys": "https://content.minetest.net/packages/Minetest/minetest_game/", 
		"dye": "https://content.minetest.net/packages/Minetest/minetest_game/", 
		"flowers": "https://content.minetest.net/packages/Minetest/minetest_game/", 
		"wool": "https://content.minetest.net/packages/Minetest/minetest_game/", 
	}, 
	"optional_dependencies": 
	{ 
		"components": "https://gitlab.com/lunovox/components", 
		"tradelands": "https://gitlab.com/lunovox/tradelands", 
		"landrush": "https://content.luanti.org/packages/BrandonReese/landrush/?protocol_version=42", 
		"biofuel": "https://content.luanti.org/packages/Lokrates/biofuel/", 
	},
   "license": {
      "is_foss":true,
      "name":"GNU AGPL-3.0 or later",
      "url": "https://gitlab.com/lunovox/luno-airboat/-/blob/main/LICENSE_CODE",
   },
   "media_license": {
      "is_foss":true,
      "name":"CC BY-SA 4.0"
      "url":"https://gitlab.com/lunovox/luno-airboat/-/blob/main/LICENSE_MEDIA",
   },
   "screenshots": [ 
      "https://gitlab.com/lunovox/luno-airboat/-/raw/main/screenshot.png", 
   ], 
   "website": null,
   "forums": null,
   "video_url": null,
   "donate_url": "https://liberapay.com/Lunovox/donate",
   "translation_url": "https://gitlab.com/lunovox/luno-airboat/-/blob/main/locale/README.md",
   "repo": "https://gitlab.com/lunovox/luno-airboat.git",
   "ignore": [ 
      ".git", 
      "*.~",
      "*.old",
      "*.bkp",
      "*.backup",
      "bkp_*",
      "*.mo", 
      "*.diff", 
      "*.patch", 
   ],
   "issue_tracker": "https://gitlab.com/lunovox/luno-airboat/-/issues",
   "short_description":"Adds an Airboat (type: airship balloon), in the version remade by **Lunovox Heavenfinder** from the version by **Paramat**.",
   "long_description": null,
}